<?xml version="1.0" encoding="UTF-8" standalone="no"?>
<!DOCTYPE svg PUBLIC "-//W3C//DTD SVG 1.1//EN" "http://www.w3.org/Graphics/SVG/1.1/DTD/svg11.dtd">
<svg width="100%" height="100%" viewBox="0 0 149 45" version="1.1" xmlns="http://www.w3.org/2000/svg" xmlns:xlink="http://www.w3.org/1999/xlink" xml:space="preserve" xmlns:serif="http://www.serif.com/" style="fill-rule:evenodd;clip-rule:evenodd;stroke-linejoin:round;stroke-miterlimit:2;">
    <g transform="matrix(1,0,0,1,-196.647,-17.8252)">
        <g transform="matrix(1,0,0,1,1648.48,4876.66)">
            <g transform="matrix(0.173647,0,0,0.173647,-1304.02,-4191.52)">
                <g transform="matrix(4.16667,0,0,4.16667,-415.131,-3757.77)">
                    <path d="M0,0.542L-1.302,2.496C-1.736,2.134 -2.207,1.808 -2.713,1.519C-3.147,1.157 -3.618,0.832 -4.124,0.542L-2.821,-1.194C-2.315,-0.977 -1.845,-0.724 -1.411,-0.435C-0.905,-0.145 -0.434,0.181 0,0.542M4.992,-3.364C4.992,-2.641 4.883,-1.845 4.666,-0.977C4.449,-0.109 3.906,0.397 3.038,0.542C1.953,0.47 0.904,0.108 -0.109,-0.543C-1.194,-1.194 -2.026,-1.845 -2.604,-2.496C-3.618,-2.062 -4.63,-1.7 -5.643,-1.411C-6.656,-1.122 -7.668,-0.905 -8.681,-0.76L-9.549,-2.93C-8.609,-3.075 -7.741,-3.292 -6.945,-3.582C-6.077,-3.798 -5.209,-4.016 -4.341,-4.232L-4.124,-4.232C-4.486,-4.666 -4.775,-5.101 -4.992,-5.535C-5.281,-5.969 -5.499,-6.403 -5.643,-6.837L-9.549,-6.403L-9.983,-8.79L-6.511,-9.224C-6.8,-9.803 -7.018,-10.381 -7.162,-10.96C-7.379,-11.539 -7.524,-12.118 -7.596,-12.696L-5.209,-12.914C-5.064,-12.407 -4.883,-11.829 -4.666,-11.177C-4.521,-10.598 -4.341,-10.02 -4.124,-9.441L-0.868,-9.875C-1.302,-10.164 -1.7,-10.381 -2.062,-10.526C-2.496,-10.743 -2.894,-10.888 -3.255,-10.96L-2.388,-13.022C-1.881,-12.877 -1.375,-12.696 -0.868,-12.479C-0.362,-12.263 0.145,-11.973 0.651,-11.611L-0.217,-9.875L4.34,-10.526L4.558,-8.139L-3.255,-7.271C-3.039,-6.981 -2.821,-6.656 -2.604,-6.294C-2.388,-6.005 -2.17,-5.679 -1.954,-5.317C-1.447,-5.606 -0.941,-5.896 -0.434,-6.186C0,-6.475 0.506,-6.764 1.085,-7.054L2.17,-5.317C1.736,-5.028 1.338,-4.775 0.977,-4.558C0.542,-4.269 0.145,-4.016 -0.217,-3.798C0,-3.509 0.361,-3.147 0.868,-2.713C1.374,-2.351 1.88,-2.134 2.387,-2.062L2.821,-2.496L2.604,-4.883L4.992,-4.666L4.992,-3.364ZM4.992,8.355C4.992,9.223 4.883,10.272 4.666,11.502C4.449,12.732 3.834,13.419 2.821,13.564C1.88,13.491 0.868,13.13 -0.217,12.479C-1.23,11.828 -2.026,11.176 -2.604,10.525C-3.689,11.032 -4.775,11.538 -5.86,12.044C-6.873,12.551 -7.958,12.985 -9.115,13.347L-10.201,11.176C-9.26,10.814 -8.247,10.453 -7.162,10.091C-6.077,9.73 -5.064,9.295 -4.124,8.789C-4.558,8.21 -4.92,7.668 -5.209,7.162C-5.499,6.583 -5.715,6.041 -5.86,5.534L-9.333,5.751L-9.767,3.581L-6.728,3.363C-6.873,2.785 -7.018,2.242 -7.162,1.736C-7.379,1.229 -7.524,0.759 -7.596,0.325L-5.209,0.108C-5.137,0.615 -5.028,1.085 -4.883,1.519C-4.739,2.025 -4.558,2.496 -4.341,2.93L3.906,2.062L4.34,4.231L-3.473,5.1C-3.4,5.534 -3.22,5.932 -2.93,6.293C-2.713,6.728 -2.46,7.125 -2.17,7.487C-1.665,7.125 -1.158,6.728 -0.651,6.293C-0.145,5.932 0.361,5.534 0.868,5.1L2.387,6.836C1.88,7.27 1.374,7.668 0.868,8.03C0.361,8.464 -0.145,8.862 -0.651,9.223C-0.362,9.512 0.072,9.875 0.651,10.309C1.157,10.67 1.664,10.887 2.17,10.959L2.387,10.959C2.676,10.67 2.821,10.164 2.821,9.44C2.749,8.717 2.676,8.138 2.604,7.704L4.992,8.355ZM-10.634,2.496C-10.779,3.219 -10.924,4.015 -11.068,4.883C-11.213,5.679 -11.358,6.547 -11.502,7.487L-13.673,6.836C-13.456,6.041 -13.275,5.245 -13.13,4.449C-12.986,3.581 -12.877,2.785 -12.805,2.062L-10.634,2.496ZM-17.58,8.789L-19.967,8.789C-20.039,7.776 -20.147,6.728 -20.292,5.642C-20.509,4.63 -20.763,3.581 -21.052,2.496L-18.665,2.278C-18.447,3.219 -18.267,4.268 -18.122,5.425C-17.905,6.51 -17.724,7.632 -17.58,8.789M-9.983,10.309C-11.575,11.032 -13.312,11.646 -15.192,12.153C-17.073,12.587 -18.881,12.985 -20.618,13.347L-21.486,10.959C-20.763,10.814 -19.967,10.67 -19.099,10.525C-18.303,10.38 -17.507,10.236 -16.711,10.091L-16.711,0.759L-20.618,0.759L-20.618,-1.628L-16.711,-1.628L-16.711,-3.798L-19.315,-3.798L-19.315,-5.969L-11.502,-5.969L-11.502,-3.798L-14.324,-3.798L-14.324,-1.628L-10.634,-1.628L-10.634,0.759L-14.324,0.759L-14.324,9.44C-13.818,9.223 -13.275,9.006 -12.696,8.789C-12.19,8.572 -11.647,8.355 -11.068,8.138L-9.983,10.309ZM-9.983,-9.007L-11.72,-7.271C-12.371,-7.777 -12.986,-8.284 -13.564,-8.79C-14.071,-9.296 -14.541,-9.803 -14.975,-10.309C-15.699,-9.585 -16.422,-8.898 -17.146,-8.248C-17.869,-7.596 -18.592,-6.981 -19.315,-6.403L-21.486,-7.922C-20.401,-8.573 -19.388,-9.26 -18.447,-9.984C-17.58,-10.779 -16.784,-11.684 -16.06,-12.696L-13.89,-12.696L-13.89,-12.263C-13.384,-11.684 -12.769,-11.141 -12.045,-10.635C-11.394,-10.128 -10.707,-9.585 -9.983,-9.007" style="fill:rgb(36,24,19);fill-rule:nonzero;"/>
                </g>
                <g transform="matrix(4.16667,0,0,4.16667,-282.929,-3714.82)">
                    <path d="M0,-20.183L-6.727,-20.183C-6.293,-19.677 -5.787,-19.17 -5.208,-18.664C-4.629,-18.158 -4.051,-17.651 -3.472,-17.145C-3.183,-17.434 -2.568,-17.94 -1.627,-18.664C-0.687,-19.387 -0.145,-19.893 0,-20.183M0,-12.804C-0.578,-13.166 -1.157,-13.491 -1.736,-13.781C-2.314,-14.142 -2.893,-14.468 -3.472,-14.758C-4.268,-14.468 -4.991,-14.142 -5.643,-13.781C-6.365,-13.491 -7.09,-13.166 -7.812,-12.804L0,-12.804ZM4.992,2.605L-12.152,2.605L-12.152,0.435L-4.557,0.435L-4.557,-1.953L-9.982,-1.953L-9.982,-4.123L-4.557,-4.123L-4.557,-6.077L-8.897,-6.077C-9.332,-5.57 -9.693,-5.063 -9.982,-4.557C-10.345,-4.051 -10.706,-3.544 -11.068,-3.038C-11.357,-3.4 -11.646,-3.689 -11.936,-3.906C-12.226,-4.195 -12.516,-4.412 -12.805,-4.557C-12.008,-5.425 -11.394,-6.293 -10.959,-7.162C-10.525,-8.03 -10.127,-9.042 -9.766,-10.2L-7.596,-9.332L-8.029,-8.246L-4.557,-8.246L-4.557,-10.2L-2.17,-10.2L-2.17,-8.246L4.342,-8.246L4.342,-6.077L-2.17,-6.077L-2.17,-4.123L3.907,-4.123L3.907,-1.953L-2.17,-1.953L-2.17,0.435L4.992,0.435L4.992,2.605ZM5.209,-13.672L4.124,-11.502C3.689,-11.646 3.22,-11.791 2.713,-11.936C2.279,-12.153 1.809,-12.298 1.303,-12.37L1.303,-10.851L-8.681,-10.851L-8.681,-12.587C-9.188,-12.515 -9.693,-12.37 -10.199,-12.153C-10.706,-12.008 -11.213,-11.864 -11.719,-11.719L-12.805,-13.89C-11.646,-14.106 -10.416,-14.395 -9.115,-14.758C-7.812,-15.119 -6.655,-15.553 -5.643,-16.059C-6.076,-16.494 -6.51,-16.891 -6.944,-17.253C-7.379,-17.687 -7.812,-18.085 -8.246,-18.447C-8.753,-17.94 -9.26,-17.506 -9.766,-17.145C-10.271,-16.783 -10.779,-16.421 -11.285,-16.059L-12.587,-17.796C-11.357,-18.592 -10.381,-19.387 -9.657,-20.183C-8.934,-20.979 -8.246,-21.992 -7.596,-23.222L-5.208,-23.004L-5.643,-22.353L1.736,-22.353L3.473,-21.051C2.822,-20.038 2.098,-19.098 1.303,-18.23C0.435,-17.434 -0.506,-16.638 -1.519,-15.843C-0.434,-15.336 0.687,-14.902 1.846,-14.54C2.931,-14.179 4.052,-13.89 5.209,-13.672M-14.54,-7.812C-14.613,-8.753 -14.865,-9.802 -15.3,-10.959C-15.807,-12.117 -16.276,-13.093 -16.711,-13.89L-16.711,-14.106C-16.639,-14.975 -16.35,-15.951 -15.842,-17.036C-15.336,-18.121 -15.047,-19.098 -14.975,-19.966C-15.047,-20.111 -15.155,-20.183 -15.3,-20.183C-15.445,-20.255 -15.553,-20.255 -15.625,-20.183L-17.796,-20.183L-17.796,-6.293C-17.724,-6.221 -17.578,-6.112 -17.361,-5.968C-17.217,-5.895 -17.072,-5.787 -16.928,-5.642L-15.842,-5.642C-15.336,-5.714 -15.011,-5.968 -14.865,-6.402C-14.648,-6.908 -14.54,-7.378 -14.54,-7.812M-12.152,-7.378C-12.152,-6.293 -12.442,-5.353 -13.021,-4.557C-13.6,-3.761 -14.469,-3.327 -15.625,-3.255C-15.987,-3.327 -16.35,-3.4 -16.711,-3.472C-17.072,-3.544 -17.434,-3.617 -17.796,-3.689L-17.796,3.039L-20.184,3.039L-20.184,-22.353L-13.889,-22.353L-12.37,-21.485C-12.587,-20.762 -12.949,-19.532 -13.455,-17.796C-14.034,-15.987 -14.323,-14.758 -14.323,-14.106C-14.251,-13.89 -13.889,-13.093 -13.238,-11.719C-12.66,-10.417 -12.298,-8.97 -12.152,-7.378" style="fill:rgb(36,24,19);fill-rule:nonzero;"/>
                </g>
                <g transform="matrix(4.16667,0,0,4.16667,-153.437,-3731.09)">
                    <path d="M0,-12.37L-1.953,-10.851C-2.748,-11.863 -3.617,-12.804 -4.557,-13.672C-5.426,-14.612 -6.293,-15.48 -7.162,-16.276L-5.209,-18.013C-4.34,-17.144 -3.473,-16.24 -2.604,-15.3C-1.736,-14.359 -0.867,-13.383 0,-12.37M-1.736,-5.859L-3.473,-4.34C-4.268,-5.352 -5.064,-6.257 -5.859,-7.053C-6.727,-7.849 -7.523,-8.608 -8.246,-9.331L-6.51,-11.068C-5.643,-10.272 -4.811,-9.44 -4.014,-8.572C-3.219,-7.776 -2.459,-6.872 -1.736,-5.859M6.078,-0.868L3.256,-0.433L3.256,6.945L0.869,6.945L0.869,0.001L-9.982,1.737L-10.416,-0.65L0.869,-2.604L0.869,-19.315L3.256,-19.315L3.256,-3.038L5.643,-3.472L6.078,-0.868ZM-8.246,-3.038L-10.199,-1.518C-10.633,-2.17 -11.104,-2.821 -11.609,-3.472C-12.045,-4.123 -12.516,-4.774 -13.021,-5.425L-13.021,6.945L-15.408,6.945L-15.408,-4.557C-15.842,-3.761 -16.312,-2.965 -16.818,-2.17C-17.254,-1.373 -17.724,-0.578 -18.229,0.218L-20.617,-0.65C-19.604,-1.953 -18.7,-3.327 -17.904,-4.774C-17.109,-6.221 -16.422,-7.74 -15.842,-9.331L-20.184,-9.331L-20.184,-11.719L-15.408,-11.719L-15.408,-15.625L-19.531,-15.408L-19.749,-18.013C-18.158,-18.157 -16.457,-18.302 -14.648,-18.447C-12.912,-18.664 -11.213,-18.953 -9.549,-19.315L-9.115,-16.928C-9.766,-16.783 -10.416,-16.638 -11.068,-16.494C-11.719,-16.349 -12.369,-16.204 -13.021,-16.059L-13.021,-11.719L-8.898,-11.719L-8.898,-9.331L-13.021,-9.331L-13.021,-8.897C-12.225,-8.029 -11.43,-7.089 -10.633,-6.076C-9.838,-5.063 -9.043,-4.05 -8.246,-3.038" style="fill:rgb(36,24,19);fill-rule:nonzero;"/>
                </g>
                <g transform="matrix(4.16667,0,0,4.16667,5.89736,-3802.53)">
                    <path d="M0,21.92L-1.736,24.09C-3.184,23.511 -4.521,22.86 -5.75,22.137C-6.98,21.341 -8.174,20.473 -9.332,19.533C-10.563,20.401 -12.045,21.269 -13.781,22.137C-15.518,23.005 -17.072,23.656 -18.447,24.09L-19.967,21.92C-18.375,21.341 -16.893,20.798 -15.518,20.293C-14.143,19.714 -12.732,18.954 -11.285,18.014C-12.299,17.001 -13.238,15.916 -14.105,14.758C-14.975,13.673 -15.77,12.588 -16.494,11.503L-14.541,9.984C-13.816,11.141 -13.021,12.262 -12.152,13.348C-11.285,14.433 -10.346,15.482 -9.332,16.495C-8.826,15.699 -7.957,14.505 -6.727,12.914C-5.57,11.395 -4.92,10.201 -4.773,9.333L-5.209,9.116L-16.494,9.116L-16.494,6.728L-11.068,6.728L-11.068,2.822L-17.795,2.822L-17.795,0.435L-11.068,0.435L-11.068,-2.17L-8.463,-2.17L-8.463,0.435L-1.084,0.435L-1.084,2.822L-8.463,2.822L-8.463,6.728L-2.387,6.728L-1.52,7.596C-2.025,9.333 -2.676,10.997 -3.473,12.588C-4.34,14.107 -5.354,15.554 -6.51,16.929C-6.801,17.074 -7.018,17.254 -7.162,17.471C-7.379,17.616 -7.523,17.797 -7.596,18.014C-6.437,18.882 -5.244,19.642 -4.014,20.293C-2.785,20.943 -1.447,21.486 0,21.92M-17.145,11.286C-17.65,11.72 -18.193,12.118 -18.771,12.48C-19.352,12.841 -19.895,13.167 -20.4,13.456L-20.4,21.486C-20.473,22.21 -20.727,22.824 -21.16,23.331C-21.666,23.765 -22.354,24.018 -23.221,24.09C-23.729,24.018 -24.234,23.945 -24.74,23.874C-25.248,23.801 -25.754,23.729 -26.26,23.656L-26.043,21.052L-24.74,21.486L-23.656,21.703C-23.367,21.631 -23.186,21.522 -23.113,21.378C-23.041,21.233 -23.004,21.052 -23.004,20.835L-23.004,14.758C-23.439,14.831 -23.836,14.975 -24.197,15.192C-24.633,15.337 -25.029,15.554 -25.393,15.843L-26.693,13.673C-26.115,13.384 -25.5,13.13 -24.85,12.914C-24.271,12.625 -23.656,12.371 -23.004,12.154L-23.004,5.643L-26.26,5.643L-26.26,3.039L-23.004,3.039L-23.004,-2.17L-20.4,-2.17L-20.4,3.039L-17.795,3.039L-17.795,5.643L-20.4,5.643L-20.4,10.635C-20.111,10.418 -19.822,10.201 -19.531,9.984C-19.314,9.767 -19.025,9.55 -18.664,9.333L-17.145,11.286Z" style="fill:rgb(36,24,19);fill-rule:nonzero;"/>
                </g>
                <g transform="matrix(4.16667,0,0,4.16667,-445.437,-3617.52)">
                    <path d="M0,-2.583L0,4.393C-0.744,4.915 -1.406,5.324 -1.987,5.618C-3.333,6.288 -4.728,6.623 -6.17,6.623C-7.87,6.623 -9.416,6.177 -10.806,5.287C-12.109,4.455 -13.084,3.355 -13.731,1.986C-14.225,0.964 -14.471,-0.118 -14.471,-1.259C-14.471,-3.01 -13.941,-4.577 -12.881,-5.961C-12.035,-7.057 -10.983,-7.893 -9.725,-8.466C-8.628,-8.959 -7.436,-9.206 -6.148,-9.206C-4.956,-9.206 -3.895,-9.017 -2.964,-8.638C-2.033,-8.258 -1.13,-7.649 -0.254,-6.811L-2.12,-4.537C-2.657,-5.037 -3.139,-5.405 -3.565,-5.641C-4.39,-6.082 -5.273,-6.303 -6.214,-6.303C-7.635,-6.303 -8.845,-5.825 -9.846,-4.868C-10.839,-3.919 -11.336,-2.697 -11.336,-1.204C-11.336,0.165 -10.861,1.32 -9.912,2.262C-8.934,3.234 -7.705,3.719 -6.226,3.719C-5.166,3.719 -4.11,3.414 -3.058,2.803L-3.058,0.209L-7.506,0.209L-6.523,-2.583L0,-2.583Z" style="fill:rgb(3,60,113);fill-rule:nonzero;"/>
                </g>
                <g transform="matrix(4.16667,0,0,4.16667,-377.941,-3654.27)">
                    <path d="M0,15.067L-8.665,15.067L-8.665,0L-0.275,0L0.32,2.793L-5.607,2.793L-5.607,5.861L-0.883,5.861L-0.883,8.654L-5.607,8.654L-5.607,12.275L1.004,12.275L0,15.067Z" style="fill:rgb(3,60,113);fill-rule:nonzero;"/>
                </g>
                <g transform="matrix(4.16667,0,0,4.16667,-294.026,-3658.04)">
                    <path d="M0,16.921L-9.306,7.152L-9.306,15.817L-12.363,16.126L-12.363,0L-3.058,9.757L-3.058,1.048L0,0.751L0,16.921Z" style="fill:rgb(3,60,113);fill-rule:nonzero;"/>
                </g>
                <g transform="matrix(0,4.16667,4.16667,0,-222.991,-3616.51)">
                    <path d="M-9.217,-6.159L5.851,-6.159L6.159,-9.217L-8.908,-9.217L-9.217,-6.159Z" style="fill:rgb(3,60,113);fill-rule:nonzero;"/>
                </g>
                <g transform="matrix(4.16667,0,0,4.16667,-203.229,-3618.35)">
                    <path d="M0,-1.909C0.427,-1.872 0.766,-1.854 1.016,-1.854C1.825,-1.854 2.466,-1.99 2.937,-2.263C3.599,-2.645 3.93,-3.208 3.93,-3.951C3.93,-4.569 3.687,-5.042 3.201,-5.369C2.716,-5.697 2.021,-5.861 1.115,-5.861C0.835,-5.861 0.464,-5.835 0,-5.784L0,-1.909ZM5.133,6.799L0,-1.07L0,6.292L-3.058,6.601L-3.058,-8.62C-1.1,-8.679 0.262,-8.708 1.026,-8.708C2.108,-8.708 3.006,-8.607 3.72,-8.405C4.434,-8.202 5.06,-7.866 5.597,-7.395C6.582,-6.541 7.075,-5.463 7.075,-4.161C7.075,-3.197 6.842,-2.378 6.375,-1.705C5.907,-1.032 5.188,-0.482 4.217,-0.055L8.268,5.895L5.133,6.799Z" style="fill:rgb(3,60,113);fill-rule:nonzero;"/>
                </g>
                <g transform="matrix(4.16667,0,0,4.16667,-112.967,-3602.02)">
                    <path d="M0,-10.012C-1.361,-10.012 -2.513,-9.537 -3.455,-8.588C-4.434,-7.602 -4.923,-6.414 -4.923,-5.023C-4.923,-3.617 -4.415,-2.418 -3.399,-1.425C-2.436,-0.483 -1.292,-0.012 0.033,-0.012C1.07,-0.012 2.013,-0.317 2.858,-0.928C3.425,-1.332 3.885,-1.844 4.238,-2.462C4.702,-3.257 4.934,-4.077 4.934,-4.924C4.934,-6.395 4.407,-7.642 3.355,-8.665C2.465,-9.533 1.347,-9.983 0,-10.012M0.033,-12.915C1.601,-12.915 3.024,-12.517 4.305,-11.723C5.452,-11.009 6.357,-10.078 7.02,-8.93C7.719,-7.723 8.068,-6.388 8.068,-4.924C8.068,-3.798 7.8,-2.686 7.263,-1.59C6.688,-0.413 5.883,0.559 4.846,1.324C3.41,2.376 1.78,2.903 -0.044,2.903C-1.428,2.903 -2.712,2.582 -3.896,1.942C-5.126,1.28 -6.107,0.36 -6.844,-0.817C-7.653,-2.12 -8.058,-3.525 -8.058,-5.034C-8.058,-7.345 -7.179,-9.295 -5.42,-10.884C-3.963,-12.216 -2.146,-12.893 0.033,-12.915" style="fill:rgb(3,60,113);fill-rule:nonzero;"/>
                </g>
                <g transform="matrix(4.16667,0,0,4.16667,1.25861,-3658.04)">
                    <path d="M0,16.921L-9.306,7.152L-9.306,15.817L-12.363,16.126L-12.363,0L-3.058,9.757L-3.058,1.048L0,0.751L0,16.921Z" style="fill:rgb(3,60,113);fill-rule:nonzero;"/>
                </g>
                <g transform="matrix(4.16667,0,0,4.16667,-598.684,-3715.61)">
                    <path d="M0,28.197L-28.194,0L0,0L0,28.197Z" style="fill:rgb(3,60,113);fill-rule:nonzero;"/>
                </g>
                <g transform="matrix(4.16667,0,0,4.16667,-598.787,-3715.61)">
                    <path d="M0,28.222L-28.219,0L0,0L0,28.222Z" style="fill:rgb(3,60,113);fill-rule:nonzero;"/>
                </g>
                <g transform="matrix(177.792,177.792,177.792,-177.792,-813.399,-3803.96)">
                    <path d="M0.142,-0.355C0.34,-0.553 0.66,-0.553 0.858,-0.355C0.952,-0.261 1,-0.141 1.002,-0.019C0.986,-0.089 0.952,-0.155 0.897,-0.21C0.744,-0.363 0.496,-0.363 0.343,-0.21C0.19,-0.057 0.19,0.191 0.343,0.344L0.347,0.348C0.355,0.356 0.363,0.363 0.371,0.37C0.475,0.452 0.621,0.454 0.726,0.374L0.778,0.426C0.582,0.556 0.315,0.534 0.142,0.361C-0.056,0.163 -0.056,-0.157 0.142,-0.355Z" style="fill:url(#_Linear1);fill-rule:nonzero;"/>
                </g>
                <g transform="matrix(179.323,179.323,179.323,-179.323,-819.469,-3800.12)">
                    <path d="M0.347,-0.18C0.498,-0.332 0.744,-0.332 0.896,-0.18C0.95,-0.126 0.984,-0.061 1,0.009C1,0.01 1,0.012 1,0.013L0.795,0.013C0.784,-0.003 0.771,-0.02 0.757,-0.034C0.644,-0.146 0.462,-0.146 0.35,-0.034C0.239,0.077 0.238,0.257 0.347,0.37C0.347,0.37 0.347,0.369 0.347,0.369C0.195,0.217 0.195,-0.029 0.347,-0.18Z" style="fill:url(#_Linear2);fill-rule:nonzero;"/>
                </g>
            </g>
        </g>
    </g>
    <defs>
        <linearGradient id="_Linear1" x1="0" y1="0" x2="1" y2="0" gradientUnits="userSpaceOnUse" gradientTransform="matrix(1,0,0,-1,0,0.00314344)"><stop offset="0" style="stop-color:rgb(11,184,236);stop-opacity:1"/><stop offset="1" style="stop-color:rgb(34,62,127);stop-opacity:1"/></linearGradient>
        <linearGradient id="_Linear2" x1="0" y1="0" x2="1" y2="0" gradientUnits="userSpaceOnUse" gradientTransform="matrix(1,0,0,-1,0,0.037919)"><stop offset="0" style="stop-color:rgb(34,62,127);stop-opacity:1"/><stop offset="1" style="stop-color:rgb(11,184,236);stop-opacity:1"/></linearGradient>
    </defs>
</svg>
