<?xml version="1.0" encoding="UTF-8" standalone="no"?>
<!DOCTYPE svg PUBLIC "-//W3C//DTD SVG 1.1//EN" "http://www.w3.org/Graphics/SVG/1.1/DTD/svg11.dtd">
<svg width="100%" height="100%" viewBox="0 0 85 66" version="1.1" xmlns="http://www.w3.org/2000/svg" xmlns:xlink="http://www.w3.org/1999/xlink" xml:space="preserve" xmlns:serif="http://www.serif.com/" style="fill-rule:evenodd;clip-rule:evenodd;stroke-linejoin:round;stroke-miterlimit:2;">
    <g transform="matrix(1,0,0,1,-199.135,-3427.62)">
        <g transform="matrix(1,0,0,1,536.117,5448.52)">
            <g transform="matrix(0.166016,0,0,0.166016,-63.3087,-1604.79)">
                <g transform="matrix(1,0,0,1,-1648.48,-2564.64)">
                    <rect x="27.689" y="181" width="58.8" height="30" style="fill:rgb(0,131,202);"/>
                </g>
                <g transform="matrix(1,0,0,1,-1648.48,-2564.64)">
                    <rect x="27.689" y="301" width="58.8" height="30" style="fill:rgb(0,131,202);"/>
                </g>
                <g transform="matrix(1,0,0,1,-1648.48,-2564.64)">
                    <rect x="0" y="241" width="86.49" height="30" style="fill:rgb(0,131,202);"/>
                </g>
                <g transform="matrix(1,0,0,1,-1648.48,-2564.64)">
                    <path d="M314.244,58.245C205.202,58.245 116.489,146.958 116.489,256C116.489,365.042 205.201,453.755 314.244,453.755C423.287,453.755 512,365.042 512,256C512,146.958 423.287,58.245 314.244,58.245ZM314.244,423.755C221.744,423.755 146.489,348.5 146.489,256C146.489,163.5 221.744,88.245 314.244,88.245C406.745,88.245 482,163.5 482,256C482,348.5 406.745,423.755 314.244,423.755Z" style="fill:rgb(0,131,202);fill-rule:nonzero;"/>
                </g>
                <g transform="matrix(1,0,0,1,-1648.48,-2564.64)">
                    <path d="M323.93,263.454L323.93,166.557L293.93,166.557L293.93,279.313L371.238,331.996L388.133,307.205L323.93,263.454Z" style="fill:rgb(0,131,202);fill-rule:nonzero;"/>
                </g>
            </g>
        </g>
    </g>
</svg>
