<?xml version="1.0" encoding="UTF-8" standalone="no"?>
<!DOCTYPE svg PUBLIC "-//W3C//DTD SVG 1.1//EN" "http://www.w3.org/Graphics/SVG/1.1/DTD/svg11.dtd">
<svg width="100%" height="100%" viewBox="0 0 16 16" version="1.1" xmlns="http://www.w3.org/2000/svg" xmlns:xlink="http://www.w3.org/1999/xlink" xml:space="preserve" xmlns:serif="http://www.serif.com/" style="fill-rule:evenodd;clip-rule:evenodd;stroke-linejoin:round;stroke-miterlimit:2;">
    <g transform="matrix(1,0,0,1,-1553,-4037.77)">
        <g transform="matrix(1,0,0,1,482,1503.77)">
            <g transform="matrix(1,0,0,1,-1.25,-1)">
                <g transform="matrix(1.33333,0,0,0.888889,-360.083,282.556)">
                    <rect x="1079.5" y="2534" width="1.5" height="18" style="fill:white;"/>
                </g>
                <g transform="matrix(8.16431e-17,1.33333,-0.888889,5.44287e-17,3340.69,1102.67)">
                    <rect x="1079.5" y="2534" width="1.5" height="18" style="fill:white;"/>
                </g>
            </g>
        </g>
    </g>
</svg>
