<?xml version="1.0" encoding="UTF-8" standalone="no"?>
<!DOCTYPE svg PUBLIC "-//W3C//DTD SVG 1.1//EN" "http://www.w3.org/Graphics/SVG/1.1/DTD/svg11.dtd">
<svg width="100%" height="100%" viewBox="0 0 23 25" version="1.1" xmlns="http://www.w3.org/2000/svg" xmlns:xlink="http://www.w3.org/1999/xlink" xml:space="preserve" xmlns:serif="http://www.serif.com/" style="fill-rule:evenodd;clip-rule:evenodd;stroke-linejoin:round;stroke-miterlimit:2;">
    <g transform="matrix(1,0,0,1,-340.601,-1007.74)">
        <g transform="matrix(1,0,0,1,38.0504,-77.5)">
            <g transform="matrix(1,0,0,1,-34.0712,-0.760261)">
                <g>
                    <g transform="matrix(1.06066,1.06066,-0.707107,0.707107,729.858,-81.0399)">
                        <path d="M382,1097.5C382,1096.67 381.552,1096 381,1096C380.448,1096 380,1096.67 380,1097.5L380,1111.5C380,1112.33 380.448,1113 381,1113C381.552,1113 382,1112.33 382,1111.5L382,1097.5Z" style="fill:white;"/>
                    </g>
                    <g transform="matrix(-1.06066,1.06066,-0.707107,-0.707107,1528.18,1480.96)">
                        <path d="M382,1097.5C382,1096.67 381.552,1096 381,1096C380.448,1096 380,1096.67 380,1097.5L380,1111.5C380,1112.33 380.448,1113 381,1113C381.552,1113 382,1112.33 382,1111.5L382,1097.5Z" style="fill:white;"/>
                    </g>
                    <g transform="matrix(1.5,0,0,5.5,-173.979,-4964)">
                        <path d="M349,1100.27C349,1100.12 348.552,1100 348,1100C347.448,1100 347,1100.12 347,1100.27L347,1103.73C347,1103.88 347.448,1104 348,1104C348.552,1104 349,1103.88 349,1103.73L349,1100.27Z" style="fill:white;"/>
                    </g>
                </g>
            </g>
        </g>
    </g>
</svg>
