<?xml version="1.0" encoding="UTF-8" standalone="no"?>
<!DOCTYPE svg PUBLIC "-//W3C//DTD SVG 1.1//EN" "http://www.w3.org/Graphics/SVG/1.1/DTD/svg11.dtd">
<svg width="100%" height="100%" viewBox="0 0 20 6" version="1.1" xmlns="http://www.w3.org/2000/svg" xmlns:xlink="http://www.w3.org/1999/xlink" xml:space="preserve" xmlns:serif="http://www.serif.com/" style="fill-rule:evenodd;clip-rule:evenodd;stroke-linejoin:round;stroke-miterlimit:2;">
    <g transform="matrix(1,0,0,1,-1645,-1032.5)">
        <g transform="matrix(-1,0,0,1,3380,190)">
            <g transform="matrix(6.12323e-17,-1,1,6.12323e-17,998.5,2609.18)">
                <g transform="matrix(1,0,0,0.273973,0.68302,536.774)">
                    <path d="M1762,657.825C1762,656.818 1761.78,656 1761.5,656C1761.22,656 1761,656.818 1761,657.825L1761,727.175C1761,728.182 1761.22,729 1761.5,729C1761.78,729 1762,728.182 1762,727.175L1762,657.825Z" style="fill:rgb(0,94,171);"/>
                </g>
                <g transform="matrix(0.866025,0.5,-0.0616438,0.10677,281.368,-222.153)">
                    <path d="M1762,660.056C1762,657.817 1761.78,656 1761.5,656C1761.22,656 1761,657.817 1761,660.056L1761,724.944C1761,727.183 1761.22,729 1761.5,729C1761.78,729 1762,727.183 1762,724.944L1762,660.056Z" style="fill:rgb(0,94,171);"/>
                </g>
            </g>
        </g>
    </g>
</svg>
