<?xml version="1.0" encoding="UTF-8" standalone="no"?>
<!DOCTYPE svg PUBLIC "-//W3C//DTD SVG 1.1//EN" "http://www.w3.org/Graphics/SVG/1.1/DTD/svg11.dtd">
<svg width="100%" height="100%" viewBox="0 0 15 15" version="1.1" xmlns="http://www.w3.org/2000/svg" xmlns:xlink="http://www.w3.org/1999/xlink" xml:space="preserve" xmlns:serif="http://www.serif.com/" style="fill-rule:evenodd;clip-rule:evenodd;stroke-linejoin:round;stroke-miterlimit:2;">
    <g transform="matrix(1,0,0,1,-210,-578)">
        <g transform="matrix(1,0,0,1,-8,1)">
            <g transform="matrix(-1,0,0,1,889.693,-821.5)">
                <g>
                    <g transform="matrix(-1,0,0,1,872.693,820.5)">
                        <rect x="201" y="578" width="3" height="3" style="fill:rgb(0,94,171);"/>
                    </g>
                    <g transform="matrix(-1,0,0,1,872.693,826.5)">
                        <rect x="201" y="578" width="3" height="3" style="fill:rgb(0,94,171);"/>
                    </g>
                    <g transform="matrix(-1,0,0,1,872.693,832.5)">
                        <rect x="201" y="578" width="3" height="3" style="fill:rgb(0,94,171);"/>
                    </g>
                    <g transform="matrix(-1,0,0,1,866.693,820.5)">
                        <rect x="201" y="578" width="3" height="3" style="fill:rgb(0,94,171);"/>
                    </g>
                    <g transform="matrix(-1,0,0,1,866.693,826.5)">
                        <rect x="201" y="578" width="3" height="3" style="fill:rgb(0,94,171);"/>
                    </g>
                    <g transform="matrix(-1,0,0,1,866.693,832.5)">
                        <rect x="201" y="578" width="3" height="3" style="fill:rgb(0,94,171);"/>
                    </g>
                    <g transform="matrix(-1,0,0,1,860.693,820.5)">
                        <rect x="201" y="578" width="3" height="3" style="fill:rgb(0,94,171);"/>
                    </g>
                    <g transform="matrix(-1,0,0,1,860.693,826.5)">
                        <rect x="201" y="578" width="3" height="3" style="fill:rgb(0,94,171);"/>
                    </g>
                    <g transform="matrix(-1,0,0,1,860.693,832.5)">
                        <rect x="201" y="578" width="3" height="3" style="fill:rgb(0,94,171);"/>
                    </g>
                </g>
            </g>
        </g>
    </g>
</svg>
