<?xml version="1.0" encoding="UTF-8" standalone="no"?>
<!DOCTYPE svg PUBLIC "-//W3C//DTD SVG 1.1//EN" "http://www.w3.org/Graphics/SVG/1.1/DTD/svg11.dtd">
<svg width="100%" height="100%" viewBox="0 0 15 26" version="1.1" xmlns="http://www.w3.org/2000/svg" xmlns:xlink="http://www.w3.org/1999/xlink" xml:space="preserve" xmlns:serif="http://www.serif.com/" style="fill-rule:evenodd;clip-rule:evenodd;stroke-linejoin:round;stroke-miterlimit:2;">
    <g transform="matrix(1,0,0,1,-1799.29,-3303.27)">
        <g transform="matrix(-1,0,0,1,2001.05,195.75)">
            <g transform="matrix(1.41421,-1.41421,0.979071,0.979071,-3220.09,422.474)">
                <rect x="251" y="3118" width="1" height="13" style="fill:rgb(0,94,171);"/>
            </g>
            <g transform="matrix(1.41421,1.41421,-0.979071,0.979071,2898.12,-300.189)">
                <rect x="251" y="3118" width="1" height="13" style="fill:rgb(0,94,171);"/>
            </g>
        </g>
    </g>
</svg>
