<?xml version="1.0" encoding="UTF-8" standalone="no"?>
<!DOCTYPE svg PUBLIC "-//W3C//DTD SVG 1.1//EN" "http://www.w3.org/Graphics/SVG/1.1/DTD/svg11.dtd">
<svg width="100%" height="100%" viewBox="0 0 30 8" version="1.1" xmlns="http://www.w3.org/2000/svg" xmlns:xlink="http://www.w3.org/1999/xlink" xml:space="preserve" xmlns:serif="http://www.serif.com/" style="fill-rule:evenodd;clip-rule:evenodd;stroke-linejoin:round;stroke-miterlimit:2;">
    <g transform="matrix(1,0,0,1,-278,-1585.71)">
        <g transform="matrix(6.12323e-17,-1,1,6.12323e-17,-373.04,3337.96)">
            <g transform="matrix(1,0,0,1,-16.25,-55.277)">
                <g transform="matrix(2,0,0,0.410959,-1761,436.728)">
                    <path d="M1762,658.433C1762,657.09 1761.78,656 1761.5,656C1761.22,656 1761,657.09 1761,658.433L1761,726.567C1761,727.91 1761.22,729 1761.5,729C1761.78,729 1762,727.91 1762,726.567L1762,658.433Z" style="fill:rgb(0,94,171);"/>
                </g>
                <g transform="matrix(1.73205,1,-0.0890411,0.154224,-1224.6,-1137.75)">
                    <path d="M1762,661.615C1762,658.516 1761.78,656 1761.5,656C1761.22,656 1761,658.516 1761,661.615L1761,723.385C1761,726.484 1761.22,729 1761.5,729C1761.78,729 1762,726.484 1762,723.385L1762,661.615Z" style="fill:rgb(0,94,171);"/>
                </g>
            </g>
        </g>
    </g>
</svg>
