<?xml version="1.0" encoding="UTF-8" standalone="no"?>
<!DOCTYPE svg PUBLIC "-//W3C//DTD SVG 1.1//EN" "http://www.w3.org/Graphics/SVG/1.1/DTD/svg11.dtd">
<svg width="100%" height="100%" viewBox="0 0 341 546" version="1.1" xmlns="http://www.w3.org/2000/svg" xmlns:xlink="http://www.w3.org/1999/xlink" xml:space="preserve" xmlns:serif="http://www.serif.com/" style="fill-rule:evenodd;clip-rule:evenodd;stroke-linejoin:round;stroke-miterlimit:2;">
    <g transform="matrix(1,0,0,1,-251.464,-1130.34)">
        <g transform="matrix(1,0,0,1,-392.693,264.5)">
            <g transform="matrix(48.1994,0,0,48.1994,-29291.8,-66593.7)">
                <path d="M628.157,1405.25L622.5,1399.59L621.086,1401.01L625.328,1405.25L621.086,1409.49L622.5,1410.91L628.157,1405.25Z" style="fill:rgb(200,200,200);"/>
            </g>
        </g>
    </g>
</svg>
